<?xml version="1.0" encoding="UTF-8" standalone="no"?>
<svg
   xmlns:dc="http://purl.org/dc/elements/1.1/"
   xmlns:cc="http://creativecommons.org/ns#"
   xmlns:rdf="http://www.w3.org/1999/02/22-rdf-syntax-ns#"
   xmlns:svg="http://www.w3.org/2000/svg"
   xmlns="http://www.w3.org/2000/svg"
   xmlns:sodipodi="http://sodipodi.sourceforge.net/DTD/sodipodi-0.dtd"
   xmlns:inkscape="http://www.inkscape.org/namespaces/inkscape"
   height="37.795"
   width="37.795"
   version="1.1"
   id="svg8"
   sodipodi:docname="attach.svg"
   inkscape:version="0.92.4 5da689c313, 2019-01-14">
  <metadata
     id="metadata14">
    <rdf:RDF>
      <cc:Work
         rdf:about="">
        <dc:format>image/svg+xml</dc:format>
        <dc:type
           rdf:resource="http://purl.org/dc/dcmitype/StillImage" />
        <dc:title />
      </cc:Work>
    </rdf:RDF>
  </metadata>
  <defs
     id="defs12" />
  <sodipodi:namedview
     pagecolor="#ffffff"
     bordercolor="#666666"
     borderopacity="1"
     objecttolerance="10"
     gridtolerance="10"
     guidetolerance="10"
     inkscape:pageopacity="0"
     inkscape:pageshadow="2"
     inkscape:window-width="3840"
     inkscape:window-height="2111"
     id="namedview10"
     showgrid="false"
     inkscape:zoom="35.3226"
     inkscape:cx="25.15209"
     inkscape:cy="21.523752"
     inkscape:window-x="0"
     inkscape:window-y="49"
     inkscape:window-maximized="1"
     inkscape:current-layer="svg8" />
  <path
     d="M19.06 11.421v14.753"
     fill="none"
     stroke="#fff"
     id="path4" />
  <path
     d="M19.06 11.421v14.753m-7.376-7.376h14.752"
     fill="none"
     stroke="#fff"
     stroke-width="3"
     stroke-linecap="round"
     id="path6" />
  <path
     style="fill:#000000;stroke-width:2;stroke-miterlimit:4;stroke-dasharray:none"
     d="M 7.9658413,33.013957 C 5.7156026,32.240274 4.2895585,30.601952 3.7995417,28.227457 3.5691904,27.111194 3.6815609,26.050008 4.1744062,24.687709 4.4878841,23.82119 5.1745317,23.087719 13.299244,14.940582 22.645998,5.5680365 22.824738,5.4139379 25.009,4.8450081 c 4.340405,-1.130531 8.800133,1.8221625 9.61753,6.3675649 0.353715,1.966947 -0.212188,4.295741 -1.442591,5.936529 -0.403937,0.538666 -3.715095,3.951474 -7.358129,7.584017 l -6.623698,6.604627 -0.843636,-0.856516 -0.843635,-0.856513 7.088678,-7.111066 c 6.699693,-6.720848 7.109377,-7.167158 7.465874,-8.13328 C 33.043466,11.74058 31.815401,8.7252082 29.256709,7.4741565 28.033805,6.8762283 26.203747,6.8106948 24.831552,7.3156947 c -0.972901,0.3580498 -1.435138,0.7879424 -9.581289,8.9108423 -4.96382,4.949656 -8.6793051,8.787577 -8.8453011,9.136793 -0.3821228,0.803869 -0.4788545,1.973644 -0.237376,2.870434 0.2426708,0.9012 1.2275899,2.025055 2.1381487,2.439755 0.8943472,0.407316 2.3561574,0.403588 3.2370164,-0.0083 0.448137,-0.209525 2.679429,-2.324817 6.516625,-6.177866 6.086737,-6.111873 5.973064,-5.971448 5.836963,-7.210751 -0.07964,-0.725154 -0.547578,-1.312258 -1.317284,-1.652736 -1.419211,-0.627784 -1.606118,-0.50319 -6.394885,4.262912 l -4.21778,4.197821 -0.806358,-0.806351 -0.806347,-0.806349 4.257473,-4.262589 c 4.577204,-4.582697 5.070982,-4.953913 6.751179,-5.075449 3.555373,-0.257172 6.007026,3.428315 4.407359,6.625436 -0.403671,0.806787 -10.676833,11.280301 -12.098825,12.334788 -0.980548,0.72713 -2.631041,1.284022 -3.7838377,1.276712 -0.4949024,-0.0032 -1.359433,-0.163733 -1.921192,-0.356877 z"
     id="path46"
     inkscape:connector-curvature="0" />
</svg>
