<?xml version="1.0" encoding="UTF-8" standalone="no"?>
<svg
   xmlns:dc="http://purl.org/dc/elements/1.1/"
   xmlns:cc="http://creativecommons.org/ns#"
   xmlns:rdf="http://www.w3.org/1999/02/22-rdf-syntax-ns#"
   xmlns:svg="http://www.w3.org/2000/svg"
   xmlns="http://www.w3.org/2000/svg"
   xmlns:sodipodi="http://sodipodi.sourceforge.net/DTD/sodipodi-0.dtd"
   xmlns:inkscape="http://www.inkscape.org/namespaces/inkscape"
   height="37.795"
   width="37.795"
   version="1.1"
   id="svg8"
   sodipodi:docname="search.svg"
   inkscape:version="0.92.4 5da689c313, 2019-01-14">
  <metadata
     id="metadata14">
    <rdf:RDF>
      <cc:Work
         rdf:about="">
        <dc:format>image/svg+xml</dc:format>
        <dc:type
           rdf:resource="http://purl.org/dc/dcmitype/StillImage" />
        <dc:title></dc:title>
      </cc:Work>
    </rdf:RDF>
  </metadata>
  <defs
     id="defs12" />
  <sodipodi:namedview
     pagecolor="#ffffff"
     bordercolor="#666666"
     borderopacity="1"
     objecttolerance="10"
     gridtolerance="10"
     guidetolerance="10"
     inkscape:pageopacity="0"
     inkscape:pageshadow="2"
     inkscape:window-width="3840"
     inkscape:window-height="2109"
     id="namedview10"
     showgrid="false"
     inkscape:zoom="35.3226"
     inkscape:cx="25.706514"
     inkscape:cy="11.12509"
     inkscape:window-x="0"
     inkscape:window-y="51"
     inkscape:window-maximized="1"
     inkscape:current-layer="svg8" />
  <path
     style="fill:#000000;stroke-width:0.13371028"
     d="m 26.888007,29.99399 -3.616779,-3.608022 -1.170384,0.607598 c -1.755706,0.911455 -3.372436,1.293472 -5.513139,1.30271 -1.356539,0.0065 -1.996652,-0.0566 -2.915069,-0.284145 C 10.052683,27.115041 7.1214279,24.737035 5.4821359,21.3675 4.6243662,19.604378 4.3039842,18.149953 4.3039842,16.019087 4.3039842,13.948828 4.609442,12.50804 5.41095,10.797666 6.0746272,9.3813905 6.5956464,8.6222479 7.6877661,7.4801511 9.2822073,5.8127673 11.268646,4.6512573 13.579227,4.0353063 c 1.571112,-0.41884 4.374256,-0.4179552 5.950104,0.0013 2.156798,0.5746136 4.189922,1.7541705 5.74525,3.3332193 1.777592,1.8047199 3.026656,4.3030964 3.425692,6.8520874 0.35779,2.285533 -0.09954,5.132864 -1.176134,7.321723 l -0.481478,0.978946 3.649386,3.658259 c 3.530955,3.539529 3.646627,3.672064 3.564303,4.08367 -0.232697,1.163514 -2.52462,3.336915 -3.518893,3.336915 -0.127903,0 -1.860227,-1.623601 -3.84945,-3.608009 z m -8.37529,-5.957286 c 2.606605,-0.614429 5.012092,-2.865014 5.836305,-5.460481 1.061621,-3.343082 0.07716,-6.679645 -2.65549,-8.9996735 C 20.315993,8.4069858 18.549279,7.795914 16.545483,7.795914 c -2.351944,0 -4.099934,0.7252216 -5.786796,2.400894 -2.5855271,2.568378 -3.1946342,6.215851 -1.5841626,9.486276 1.0291566,2.089932 3.0708946,3.752346 5.3406716,4.348454 0.969252,0.254557 2.928809,0.257081 3.997521,0.0052 z"
     id="path46"
     inkscape:connector-curvature="0" />
</svg>
