<?xml version="1.0" encoding="UTF-8" standalone="no"?>
<svg
   xmlns:dc="http://purl.org/dc/elements/1.1/"
   xmlns:cc="http://creativecommons.org/ns#"
   xmlns:rdf="http://www.w3.org/1999/02/22-rdf-syntax-ns#"
   xmlns:svg="http://www.w3.org/2000/svg"
   xmlns="http://www.w3.org/2000/svg"
   xmlns:sodipodi="http://sodipodi.sourceforge.net/DTD/sodipodi-0.dtd"
   xmlns:inkscape="http://www.inkscape.org/namespaces/inkscape"
   height="37.795"
   width="37.795"
   version="1.1"
   id="svg8"
   sodipodi:docname="update-primary.svg"
   inkscape:version="0.92.4 5da689c313, 2019-01-14">
  <metadata
     id="metadata14">
    <rdf:RDF>
      <cc:Work
         rdf:about="">
        <dc:format>image/svg+xml</dc:format>
        <dc:type
           rdf:resource="http://purl.org/dc/dcmitype/StillImage" />
      </cc:Work>
    </rdf:RDF>
  </metadata>
  <defs
     id="defs12" />
  <sodipodi:namedview
     pagecolor="#ffffff"
     bordercolor="#666666"
     borderopacity="1"
     objecttolerance="10"
     gridtolerance="10"
     guidetolerance="10"
     inkscape:pageopacity="0"
     inkscape:pageshadow="2"
     inkscape:window-width="2676"
     inkscape:window-height="1676"
     id="namedview10"
     showgrid="false"
     inkscape:zoom="6.2442125"
     inkscape:cx="-42.83967"
     inkscape:cy="18.897499"
     inkscape:window-x="0"
     inkscape:window-y="0"
     inkscape:window-maximized="0"
     inkscape:current-layer="svg8" />
  <circle
     cx="19.038"
     cy="18.798"
     r="15.5"
     fill="#006ee3"
     fill-opacity=".941"
     id="circle2"
     style="fill:#0060c0;fill-opacity:1" />
  <path
     d="M27.92 19.503a9.01 9.01 0 0 1-5.949 8.473 9.01 9.01 0 0 1-9.99-2.715 9.01 9.01 0 0 1-.84-10.319 9.01 9.01 0 0 1 9.42-4.296"
     fill="none"
     stroke="#fff"
     stroke-width="2.574"
     stroke-linecap="round"
     stroke-linejoin="bevel"
     id="path4" />
  <path
     d="M28 15.795l-3.256 3.851m3.554-3.851l2.765 3.851"
     fill="#fff"
     stroke="#fff"
     stroke-width="3"
     stroke-linecap="round"
     id="path6" />
</svg>
